Introduction to R and Stata
…
# Group Data by Age and Marital Status
gss %>%
  filter(!is.na(age)) %>%
  group_by(age, marital) %>%
  count()

## Source: local data frame [351 x 3]
## Groups: age [?]
## 
##      age       marital     n
##    <int>         <chr> <int>
## 1     18       Married     2
## 2     18 Never married    89
## 3     19      Divorced     3
## 4     19       Married    11
## 5     19 Never married   234
## 6     19       Widowed     1
## 7     20      Divorced     2
## 8     20       Married    21
## 9     20 Never married   227
## 10    20     Separated     1
## # ... with 341 more rows
…
